<?xml version="1.0" encoding="UTF-8" standalone="no"?>
<!-- Created with Inkscape (http://www.inkscape.org/) -->

<svg
   xmlns:dc="http://purl.org/dc/elements/1.1/"
   xmlns:cc="http://creativecommons.org/ns#"
   xmlns:rdf="http://www.w3.org/1999/02/22-rdf-syntax-ns#"
   xmlns:svg="http://www.w3.org/2000/svg"
   xmlns="http://www.w3.org/2000/svg"
   xmlns:sodipodi="http://sodipodi.sourceforge.net/DTD/sodipodi-0.dtd"
   xmlns:inkscape="http://www.inkscape.org/namespaces/inkscape"
   width="800"
   height="600"
   viewBox="0 0 211.66666 158.75"
   version="1.1"
   id="svg8"
   sodipodi:docname="system-diagram.svg"
   inkscape:version="0.92.3 (2405546, 2018-03-11)">
  <defs
     id="defs2" />
  <sodipodi:namedview
     id="base"
     pagecolor="#ffffff"
     bordercolor="#666666"
     borderopacity="1.0"
     inkscape:pageopacity="1"
     inkscape:pageshadow="2"
     inkscape:zoom="0.7"
     inkscape:cx="-429.22505"
     inkscape:cy="303.26309"
     inkscape:document-units="mm"
     inkscape:current-layer="layer1"
     showgrid="false"
     units="px"
     inkscape:window-width="1920"
     inkscape:window-height="1031"
     inkscape:window-x="0"
     inkscape:window-y="25"
     inkscape:window-maximized="1" />
  <metadata
     id="metadata5">
    <rdf:RDF>
      <cc:Work
         rdf:about="">
        <dc:format>image/svg+xml</dc:format>
        <dc:type
           rdf:resource="http://purl.org/dc/dcmitype/StillImage" />
        <dc:title></dc:title>
      </cc:Work>
    </rdf:RDF>
  </metadata>
  <g
     inkscape:groupmode="layer"
     id="layer2"
     inkscape:label="bg"
     sodipodi:insensitive="true">
    <rect
       transform="translate(0,-138.24998)"
       style="fill:#ffffff;fill-opacity:1;stroke:#000000;stroke-width:0.17638889;stroke-miterlimit:4;stroke-dasharray:none;stroke-opacity:1"
       id="rect4799"
       width="211.66667"
       height="158.75"
       x="0"
       y="138.24998" />
  </g>
  <g
     inkscape:label="Layer 1"
     inkscape:groupmode="layer"
     id="layer1"
     transform="translate(0,-138.24998)">
    <g
       id="g4708"
       transform="translate(-3.0146936,-6.6091776)">
      <g
         transform="translate(12.243385,-20.045227)"
         id="g4686">
        <rect
           id="rect3748"
           width="47.625"
           height="66.145836"
           x="71.628227"
           y="211.20647"
           style="fill:none;stroke:#000000;stroke-width:0.26458332;stroke-opacity:1" />
        <text
           xml:space="preserve"
           style="font-style:normal;font-variant:normal;font-weight:normal;font-stretch:normal;font-size:4.93888903px;line-height:1.25;font-family:sans-serif;-inkscape-font-specification:'sans-serif, Normal';font-variant-ligatures:normal;font-variant-caps:normal;font-variant-numeric:normal;font-feature-settings:normal;text-align:start;letter-spacing:0px;word-spacing:0px;writing-mode:lr-tb;text-anchor:start;fill:#000000;fill-opacity:1;stroke:none;stroke-width:0.26458332"
           x="82.104759"
           y="218.53069"
           id="text4557"
           inkscape:transform-center-x="-1.8708867"
           inkscape:transform-center-y="-1.0690781"><tspan
             sodipodi:role="line"
             id="tspan4559"
             x="82.104759"
             y="218.53069">Mainframe</tspan></text>
      </g>
      <g
         transform="translate(-7.6970886,-30.216302)"
         id="g4666">
        <rect
           style="fill:none;stroke:#000000;stroke-width:0.26458332;stroke-opacity:1"
           id="rect4566-8"
           width="37.041668"
           height="11.90625"
           x="96.860367"
           y="260.23767" />
        <text
           xml:space="preserve"
           style="font-style:normal;font-variant:normal;font-weight:normal;font-stretch:normal;font-size:4.93888855px;line-height:1.25;font-family:sans-serif;-inkscape-font-specification:'sans-serif, Normal';font-variant-ligatures:normal;font-variant-caps:normal;font-variant-numeric:normal;font-feature-settings:normal;text-align:start;letter-spacing:0px;word-spacing:0px;writing-mode:lr-tb;text-anchor:start;fill:#000000;fill-opacity:1;stroke:none;stroke-width:0.26458332"
           x="103.48253"
           y="268.03201"
           id="text4585"><tspan
             sodipodi:role="line"
             id="tspan4583"
             x="103.48253"
             y="268.03201"
             style="stroke-width:0.26458332">Database</tspan></text>
      </g>
      <g
         transform="translate(-63.982153,-42.080866)"
         id="g4676">
        <rect
           style="fill:none;stroke:#000000;stroke-width:0.26458332;stroke-opacity:1"
           id="rect4566-8-0"
           width="37.041668"
           height="11.90625"
           x="153.14543"
           y="244.34789" />
        <text
           xml:space="preserve"
           style="font-style:normal;font-variant:normal;font-weight:normal;font-stretch:normal;font-size:4.93888903px;line-height:1.25;font-family:sans-serif;-inkscape-font-specification:'sans-serif, Normal';font-variant-ligatures:normal;font-variant-caps:normal;font-variant-numeric:normal;font-feature-settings:normal;text-align:start;letter-spacing:0px;word-spacing:0px;writing-mode:lr-tb;text-anchor:start;fill:#000000;fill-opacity:1;stroke:none;stroke-width:0.26458332"
           x="155.48103"
           y="251.81548"
           id="text4585-9"><tspan
             sodipodi:role="line"
             id="tspan4622"
             x="155.48103"
             y="251.81548">MQTT Server</tspan></text>
      </g>
      <g
         transform="translate(-20.417235,-36.797987)"
         id="g4681">
        <rect
           style="fill:none;stroke:#000000;stroke-width:0.26458332;stroke-opacity:1"
           id="rect4566-8-7"
           width="37.041668"
           height="11.90625"
           x="109.58051"
           y="280.69653" />
        <text
           xml:space="preserve"
           style="font-style:normal;font-variant:normal;font-weight:normal;font-stretch:normal;font-size:4.93888903px;line-height:1.25;font-family:sans-serif;-inkscape-font-specification:'sans-serif, Normal';font-variant-ligatures:normal;font-variant-caps:normal;font-variant-numeric:normal;font-feature-settings:normal;text-align:start;letter-spacing:0px;word-spacing:0px;writing-mode:lr-tb;text-anchor:start;fill:#000000;fill-opacity:1;stroke:none;stroke-width:0.26458332"
           x="115.56964"
           y="288.49088"
           id="text4585-8"><tspan
             sodipodi:role="line"
             id="tspan4639"
             x="115.56964"
             y="288.49088">Scheduler</tspan></text>
      </g>
      <g
         transform="translate(-42.333334,24.982952)"
         id="g4671">
        <rect
           style="fill:none;stroke:#000000;stroke-width:0.26458332;stroke-opacity:1"
           id="rect4566-8-1"
           width="37.041668"
           height="11.90625"
           x="131.49661"
           y="191.16124" />
        <text
           xml:space="preserve"
           style="font-style:normal;font-variant:normal;font-weight:normal;font-stretch:normal;font-size:4.93888903px;line-height:1.25;font-family:sans-serif;-inkscape-font-specification:'sans-serif, Normal';font-variant-ligatures:normal;font-variant-caps:normal;font-variant-numeric:normal;font-feature-settings:normal;text-align:start;letter-spacing:0px;word-spacing:0px;writing-mode:lr-tb;text-anchor:start;fill:#000000;fill-opacity:1;stroke:none;stroke-width:0.26458332"
           x="135.66621"
           y="198.9556"
           id="text4585-90"><tspan
             sodipodi:role="line"
             id="tspan4656"
             x="135.66621"
             y="198.9556">Web Server</tspan></text>
      </g>
    </g>
    <g
       id="g4897">
      <g
         transform="translate(9.5221805,9.2566878)"
         id="g4811">
        <rect
           style="fill:none;stroke:#000000;stroke-width:0.26458332;stroke-opacity:1"
           id="rect4720"
           width="49.892857"
           height="6.8035712"
           x="7.5595236"
           y="147.32141" />
        <text
           xml:space="preserve"
           style="font-style:normal;font-variant:normal;font-weight:normal;font-stretch:normal;font-size:4.93888855px;line-height:1.25;font-family:sans-serif;-inkscape-font-specification:'sans-serif, Normal';font-variant-ligatures:normal;font-variant-caps:normal;font-variant-numeric:normal;font-feature-settings:normal;text-align:start;letter-spacing:0px;word-spacing:0px;writing-mode:lr-tb;text-anchor:start;fill:#000000;fill-opacity:1;stroke:none;stroke-width:0.26458332"
           x="24.933632"
           y="152.08574"
           id="text4724"><tspan
             sodipodi:role="line"
             id="tspan4722"
             x="24.933632"
             y="152.08574"
             style="stroke-width:0.26458332">Lights</tspan></text>
      </g>
      <g
         transform="translate(9.5221805,9.5590616)"
         id="g4797">
        <g
           id="g4753"
           transform="translate(-1.5119048,-3.4017857)">
          <rect
             y="175.66963"
             x="9.0714293"
             height="13.229167"
             width="49.892857"
             id="rect4720-8"
             style="fill:none;stroke:#000000;stroke-width:0.26458332;stroke-opacity:1" />
          <text
             id="text4743"
             y="184.12544"
             x="22.122805"
             style="font-style:normal;font-variant:normal;font-weight:normal;font-stretch:normal;font-size:4.93888855px;line-height:1.25;font-family:sans-serif;-inkscape-font-specification:'sans-serif, Normal';font-variant-ligatures:normal;font-variant-caps:normal;font-variant-numeric:normal;font-feature-settings:normal;text-align:start;letter-spacing:0px;word-spacing:0px;writing-mode:lr-tb;text-anchor:start;fill:#000000;fill-opacity:1;stroke:none;stroke-width:0.26458332"
             xml:space="preserve"><tspan
               style="stroke-width:0.26458332"
               y="184.12544"
               x="22.122805"
               id="tspan4741"
               sodipodi:role="line">Grow Bed</tspan></text>
        </g>
        <g
           id="g4787">
          <rect
             y="165.46428"
             x="7.5595245"
             height="6.8035712"
             width="49.892857"
             id="rect4720-5"
             style="fill:none;stroke:#000000;stroke-width:0.26458332;stroke-opacity:1" />
          <text
             id="text4724-8"
             y="170.63133"
             x="25.119324"
             style="font-style:normal;font-variant:normal;font-weight:normal;font-stretch:normal;font-size:4.93888903px;line-height:1.25;font-family:sans-serif;-inkscape-font-specification:'sans-serif, Normal';font-variant-ligatures:normal;font-variant-caps:normal;font-variant-numeric:normal;font-feature-settings:normal;text-align:start;letter-spacing:0px;word-spacing:0px;writing-mode:lr-tb;text-anchor:start;fill:#000000;fill-opacity:1;stroke:none;stroke-width:0.26458332"
             xml:space="preserve"><tspan
               y="170.63133"
               x="25.119324"
               id="tspan4782"
               sodipodi:role="line">Water</tspan></text>
        </g>
      </g>
      <rect
         y="146.25996"
         x="12.561667"
         height="50.647575"
         width="58.93293"
         id="rect4803"
         style="fill:none;fill-opacity:1;stroke:#000000;stroke-width:0.26458332;stroke-miterlimit:4;stroke-dasharray:none;stroke-opacity:1" />
      <text
         id="text4843"
         y="152.56232"
         x="29.732758"
         style="font-style:normal;font-variant:normal;font-weight:normal;font-stretch:normal;font-size:4.93888903px;line-height:1.25;font-family:sans-serif;-inkscape-font-specification:'sans-serif, Normal';font-variant-ligatures:normal;font-variant-caps:normal;font-variant-numeric:normal;font-feature-settings:normal;text-align:start;letter-spacing:0px;word-spacing:0px;writing-mode:lr-tb;text-anchor:start;fill:#000000;fill-opacity:1;stroke:none;stroke-width:0.26458332"
         xml:space="preserve"><tspan
           y="152.56232"
           x="29.732758"
           id="tspan4879"
           sodipodi:role="line">Controller</tspan></text>
    </g>
    <g
       transform="translate(125.28259,1.135898)"
       id="g4897-1">
      <g
         transform="translate(9.5221805,9.2566878)"
         id="g4811-3">
        <rect
           style="fill:none;stroke:#000000;stroke-width:0.26458332;stroke-opacity:1"
           id="rect4720-7"
           width="49.892857"
           height="6.8035712"
           x="7.5595236"
           y="147.32141" />
        <text
           xml:space="preserve"
           style="font-style:normal;font-variant:normal;font-weight:normal;font-stretch:normal;font-size:4.93888855px;line-height:1.25;font-family:sans-serif;-inkscape-font-specification:'sans-serif, Normal';font-variant-ligatures:normal;font-variant-caps:normal;font-variant-numeric:normal;font-feature-settings:normal;text-align:start;letter-spacing:0px;word-spacing:0px;writing-mode:lr-tb;text-anchor:start;fill:#000000;fill-opacity:1;stroke:none;stroke-width:0.26458332"
           x="24.933632"
           y="152.08574"
           id="text4724-4"><tspan
             sodipodi:role="line"
             id="tspan4722-1"
             x="24.933632"
             y="152.08574"
             style="stroke-width:0.26458332">Lights</tspan></text>
      </g>
      <g
         transform="translate(9.5221805,9.5590616)"
         id="g4797-1">
        <g
           id="g4753-3"
           transform="translate(-1.5119048,-3.4017857)">
          <rect
             y="175.66963"
             x="9.0714293"
             height="13.229167"
             width="49.892857"
             id="rect4720-8-0"
             style="fill:none;stroke:#000000;stroke-width:0.26458332;stroke-opacity:1" />
          <text
             id="text4743-3"
             y="184.12544"
             x="22.122805"
             style="font-style:normal;font-variant:normal;font-weight:normal;font-stretch:normal;font-size:4.93888855px;line-height:1.25;font-family:sans-serif;-inkscape-font-specification:'sans-serif, Normal';font-variant-ligatures:normal;font-variant-caps:normal;font-variant-numeric:normal;font-feature-settings:normal;text-align:start;letter-spacing:0px;word-spacing:0px;writing-mode:lr-tb;text-anchor:start;fill:#000000;fill-opacity:1;stroke:none;stroke-width:0.26458332"
             xml:space="preserve"><tspan
               style="stroke-width:0.26458332"
               y="184.12544"
               x="22.122805"
               id="tspan4741-2"
               sodipodi:role="line">Grow Bed</tspan></text>
        </g>
        <g
           id="g4787-1">
          <rect
             y="165.46428"
             x="7.5595245"
             height="6.8035712"
             width="49.892857"
             id="rect4720-5-7"
             style="fill:none;stroke:#000000;stroke-width:0.26458332;stroke-opacity:1" />
          <text
             id="text4724-8-5"
             y="170.63133"
             x="25.119324"
             style="font-style:normal;font-variant:normal;font-weight:normal;font-stretch:normal;font-size:4.93888903px;line-height:1.25;font-family:sans-serif;-inkscape-font-specification:'sans-serif, Normal';font-variant-ligatures:normal;font-variant-caps:normal;font-variant-numeric:normal;font-feature-settings:normal;text-align:start;letter-spacing:0px;word-spacing:0px;writing-mode:lr-tb;text-anchor:start;fill:#000000;fill-opacity:1;stroke:none;stroke-width:0.26458332"
             xml:space="preserve"><tspan
               y="170.63133"
               x="25.119324"
               id="tspan4782-6"
               sodipodi:role="line">Water</tspan></text>
        </g>
      </g>
      <rect
         y="146.25996"
         x="12.561667"
         height="50.647575"
         width="58.93293"
         id="rect4803-5"
         style="fill:none;fill-opacity:1;stroke:#000000;stroke-width:0.26458332;stroke-miterlimit:4;stroke-dasharray:none;stroke-opacity:1" />
      <text
         id="text4843-4"
         y="152.56232"
         x="29.732758"
         style="font-style:normal;font-variant:normal;font-weight:normal;font-stretch:normal;font-size:4.93888903px;line-height:1.25;font-family:sans-serif;-inkscape-font-specification:'sans-serif, Normal';font-variant-ligatures:normal;font-variant-caps:normal;font-variant-numeric:normal;font-feature-settings:normal;text-align:start;letter-spacing:0px;word-spacing:0px;writing-mode:lr-tb;text-anchor:start;fill:#000000;fill-opacity:1;stroke:none;stroke-width:0.26458332"
         xml:space="preserve"><tspan
           y="152.56232"
           x="29.732758"
           id="tspan4879-2"
           sodipodi:role="line">Controller</tspan></text>
    </g>
    <g
       transform="translate(125.28259,84.256721)"
       id="g4897-2">
      <g
         transform="translate(9.5221805,9.2566878)"
         id="g4811-1">
        <rect
           style="fill:none;stroke:#000000;stroke-width:0.26458332;stroke-opacity:1"
           id="rect4720-72"
           width="49.892857"
           height="6.8035712"
           x="7.5595236"
           y="147.32141" />
        <text
           xml:space="preserve"
           style="font-style:normal;font-variant:normal;font-weight:normal;font-stretch:normal;font-size:4.93888855px;line-height:1.25;font-family:sans-serif;-inkscape-font-specification:'sans-serif, Normal';font-variant-ligatures:normal;font-variant-caps:normal;font-variant-numeric:normal;font-feature-settings:normal;text-align:start;letter-spacing:0px;word-spacing:0px;writing-mode:lr-tb;text-anchor:start;fill:#000000;fill-opacity:1;stroke:none;stroke-width:0.26458332"
           x="24.933632"
           y="152.08574"
           id="text4724-41"><tspan
             sodipodi:role="line"
             id="tspan4722-6"
             x="24.933632"
             y="152.08574"
             style="stroke-width:0.26458332">Lights</tspan></text>
      </g>
      <g
         transform="translate(9.5221805,9.5590616)"
         id="g4797-5">
        <g
           id="g4753-7"
           transform="translate(-1.5119048,-3.4017857)">
          <rect
             y="175.66963"
             x="9.0714293"
             height="13.229167"
             width="49.892857"
             id="rect4720-8-8"
             style="fill:none;stroke:#000000;stroke-width:0.26458332;stroke-opacity:1" />
          <text
             id="text4743-5"
             y="184.12544"
             x="22.122805"
             style="font-style:normal;font-variant:normal;font-weight:normal;font-stretch:normal;font-size:4.93888855px;line-height:1.25;font-family:sans-serif;-inkscape-font-specification:'sans-serif, Normal';font-variant-ligatures:normal;font-variant-caps:normal;font-variant-numeric:normal;font-feature-settings:normal;text-align:start;letter-spacing:0px;word-spacing:0px;writing-mode:lr-tb;text-anchor:start;fill:#000000;fill-opacity:1;stroke:none;stroke-width:0.26458332"
             xml:space="preserve"><tspan
               style="stroke-width:0.26458332"
               y="184.12544"
               x="22.122805"
               id="tspan4741-9"
               sodipodi:role="line">Grow Bed</tspan></text>
        </g>
        <g
           id="g4787-2">
          <rect
             y="165.46428"
             x="7.5595245"
             height="6.8035712"
             width="49.892857"
             id="rect4720-5-73"
             style="fill:none;stroke:#000000;stroke-width:0.26458332;stroke-opacity:1" />
          <text
             id="text4724-8-6"
             y="170.63133"
             x="25.119324"
             style="font-style:normal;font-variant:normal;font-weight:normal;font-stretch:normal;font-size:4.93888903px;line-height:1.25;font-family:sans-serif;-inkscape-font-specification:'sans-serif, Normal';font-variant-ligatures:normal;font-variant-caps:normal;font-variant-numeric:normal;font-feature-settings:normal;text-align:start;letter-spacing:0px;word-spacing:0px;writing-mode:lr-tb;text-anchor:start;fill:#000000;fill-opacity:1;stroke:none;stroke-width:0.26458332"
             xml:space="preserve"><tspan
               y="170.63133"
               x="25.119324"
               id="tspan4782-4"
               sodipodi:role="line">Water</tspan></text>
        </g>
      </g>
      <rect
         y="146.25996"
         x="12.561667"
         height="50.647575"
         width="58.93293"
         id="rect4803-7"
         style="fill:none;fill-opacity:1;stroke:#000000;stroke-width:0.26458332;stroke-miterlimit:4;stroke-dasharray:none;stroke-opacity:1" />
      <text
         id="text4843-9"
         y="152.56232"
         x="29.732758"
         style="font-style:normal;font-variant:normal;font-weight:normal;font-stretch:normal;font-size:4.93888903px;line-height:1.25;font-family:sans-serif;-inkscape-font-specification:'sans-serif, Normal';font-variant-ligatures:normal;font-variant-caps:normal;font-variant-numeric:normal;font-feature-settings:normal;text-align:start;letter-spacing:0px;word-spacing:0px;writing-mode:lr-tb;text-anchor:start;fill:#000000;fill-opacity:1;stroke:none;stroke-width:0.26458332"
         xml:space="preserve"><tspan
           y="152.56232"
           x="29.732758"
           id="tspan4879-7"
           sodipodi:role="line">Controller</tspan></text>
    </g>
    <rect
       style="fill:none;fill-opacity:1;stroke:#000000;stroke-width:0.26458332;stroke-miterlimit:4;stroke-dasharray:none;stroke-opacity:1"
       id="rect5169"
       width="58.532028"
       height="36.883179"
       x="12.762118"
       y="230.18259" />
    <g
       id="g5310"
       transform="translate(0.40561104)">
      <rect
         y="232.72163"
         x="15.430108"
         height="31.805073"
         width="52.384827"
         id="rect5173"
         style="fill:none;fill-opacity:1;stroke:#000000;stroke-width:0.26458332;stroke-miterlimit:4;stroke-dasharray:none;stroke-opacity:1" />
      <g
         id="g5243">
        <rect
           style="fill:none;fill-opacity:1;stroke:#000000;stroke-width:0.17638889;stroke-miterlimit:4;stroke-dasharray:none;stroke-opacity:1"
           id="rect5234"
           width="15.635267"
           height="12.828938"
           x="21.849283"
           y="235.39436" />
        <path
           style="fill:none;stroke:#000000;stroke-width:0.26458332px;stroke-linecap:butt;stroke-linejoin:miter;stroke-opacity:1"
           d="m 24.187892,237.59933 v 7.81763 h 10.223059"
           id="path5236"
           inkscape:connector-curvature="0" />
        <path
           style="fill:none;stroke:#000000;stroke-width:0.26458332px;stroke-linecap:butt;stroke-linejoin:miter;stroke-opacity:1"
           d="m 25.190153,241.14065 1.269529,-1.40317 1.002261,1.93771 0.601358,-1.20272 0.935442,-0.46772 0.668174,0.60136 0.53454,1.00226 0.801809,-1.40317 1.202711,-0.4009 0.534541,0.4009 0.601355,1.46999 0.801809,-1.40317"
           id="path5238"
           inkscape:connector-curvature="0" />
      </g>
      <g
         id="g5243-8"
         transform="translate(23.911208,-0.08787014)">
        <rect
           style="fill:none;fill-opacity:1;stroke:#000000;stroke-width:0.17638889;stroke-miterlimit:4;stroke-dasharray:none;stroke-opacity:1"
           id="rect5234-8"
           width="15.635267"
           height="12.828938"
           x="21.849283"
           y="235.39436" />
        <path
           style="fill:none;stroke:#000000;stroke-width:0.26458332px;stroke-linecap:butt;stroke-linejoin:miter;stroke-opacity:1"
           d="m 24.187892,237.59933 v 7.81763 h 10.223059"
           id="path5236-0"
           inkscape:connector-curvature="0" />
        <path
           style="fill:none;stroke:#000000;stroke-width:0.26458332px;stroke-linecap:butt;stroke-linejoin:miter;stroke-opacity:1"
           d="m 25.190153,241.14065 1.269529,-1.40317 1.002261,1.93771 0.601358,-1.20272 0.935442,-0.46772 0.668174,0.60136 0.53454,1.00226 0.801809,-1.40317 1.202711,-0.4009 0.534541,0.4009 0.601355,1.46999 0.801809,-1.40317"
           id="path5238-3"
           inkscape:connector-curvature="0" />
      </g>
      <g
         id="g5243-7"
         transform="translate(23.911208,14.416966)">
        <rect
           style="fill:none;fill-opacity:1;stroke:#000000;stroke-width:0.17638889;stroke-miterlimit:4;stroke-dasharray:none;stroke-opacity:1"
           id="rect5234-0"
           width="15.635267"
           height="12.828938"
           x="21.849283"
           y="235.39436" />
        <path
           style="fill:none;stroke:#000000;stroke-width:0.26458332px;stroke-linecap:butt;stroke-linejoin:miter;stroke-opacity:1"
           d="m 24.187892,237.59933 v 7.81763 h 10.223059"
           id="path5236-6"
           inkscape:connector-curvature="0" />
        <path
           style="fill:none;stroke:#000000;stroke-width:0.26458332px;stroke-linecap:butt;stroke-linejoin:miter;stroke-opacity:1"
           d="m 25.190153,241.14065 1.269529,-1.40317 1.002261,1.93771 0.601358,-1.20272 0.935442,-0.46772 0.668174,0.60136 0.53454,1.00226 0.801809,-1.40317 1.202711,-0.4009 0.534541,0.4009 0.601355,1.46999 0.801809,-1.40317"
           id="path5238-9"
           inkscape:connector-curvature="0" />
      </g>
      <g
         id="g5243-2"
         transform="translate(0,14.416966)">
        <rect
           style="fill:none;fill-opacity:1;stroke:#000000;stroke-width:0.17638889;stroke-miterlimit:4;stroke-dasharray:none;stroke-opacity:1"
           id="rect5234-1"
           width="15.635267"
           height="12.828938"
           x="21.849283"
           y="235.39436" />
        <path
           style="fill:none;stroke:#000000;stroke-width:0.26458332px;stroke-linecap:butt;stroke-linejoin:miter;stroke-opacity:1"
           d="m 24.187892,237.59933 v 7.81763 h 10.223059"
           id="path5236-7"
           inkscape:connector-curvature="0" />
        <path
           style="fill:none;stroke:#000000;stroke-width:0.26458332px;stroke-linecap:butt;stroke-linejoin:miter;stroke-opacity:1"
           d="m 25.190153,241.14065 1.269529,-1.40317 1.002261,1.93771 0.601358,-1.20272 0.935442,-0.46772 0.668174,0.60136 0.53454,1.00226 0.801809,-1.40317 1.202711,-0.4009 0.534541,0.4009 0.601355,1.46999 0.801809,-1.40317"
           id="path5238-7"
           inkscape:connector-curvature="0" />
      </g>
    </g>
    <text
       xml:space="preserve"
       style="font-style:normal;font-variant:normal;font-weight:normal;font-stretch:normal;font-size:4.93888855px;line-height:1.25;font-family:sans-serif;-inkscape-font-specification:'sans-serif, Normal';font-variant-ligatures:normal;font-variant-caps:normal;font-variant-numeric:normal;font-feature-settings:normal;text-align:start;letter-spacing:0px;word-spacing:0px;writing-mode:lr-tb;text-anchor:start;fill:#000000;fill-opacity:1;stroke:none;stroke-width:0.26458332"
       x="39.518898"
       y="227.83034"
       id="text5314"><tspan
         sodipodi:role="line"
         id="tspan5312"
         x="39.518898"
         y="227.83034"
         style="stroke-width:0.26458332">UI</tspan></text>
  </g>
</svg>
